{
  "content": [

    {
      "uuid": "08c7888c-5b8e-4d01-aab2-00971f0ba50d",
      "published": "2021-03-29T10:12:39.46818Z",
      "expires": "2021-04-05T22:00:00Z",
      "updated": "2021-03-29T10:12:39.481245Z",
      "workLocations": [
        {
          "country": "NORGE",
          "address": "Jernbaneveien 4",
          "city": "SKI",
          "postalCode": "1400",
          "county": "VIKEN",
          "municipal": "NORDRE FOLLO"
        }
      ],
      "title": "Hjemmesykepleien søker fagsykepleier",
      "description": "<p>Org. nr: - Stillingsident: 4365837508 Presentasjon av stillingen:</p>\n<p><strong>Om helse- og omsorgstjenestene</strong></p>\n<p>Nordre Follo kommune ble opprettet 1. januar 2020. Etter en stor omstillingsprosess, kan vi nå endelig ansette flere for å gjøre våre tjenester rustet for fremtiden. Derfor har mange av virksomhetene våre nå flere ledige stillinger.</p>\n<p>Helse- og omsorgstjenesten i Nordre Follo omfatter blant annet sykehjem, hjemmesykepleie, habilitering, lokalt medisinsk senter, forvaltning, forebyggende tjenester, legetjenester, psykisk helse og rus. Vi tilbyr stor bredde, varierende og spennende arbeidsoppgaver og et stort fagmiljø.</p>\n<p>Vi jobber med innovasjon og implementering av velferdsteknologi, kompetanseutvikling for ansatte og helhetlige pasientforløp i et livsmestringsperspektiv. Det pågår flere spennende fag- og utviklingsprosjekter i virksomhetene.</p>\n<p><strong>Er du vår nye fagsykepleier? Vil du være med og videreutvikle hjemmesykepleien?</strong></p>\n<p><strong>Hjemmesykepleie Sør</strong> har base i Ski og består av 4 avdelinger. Vi er mange engasjerte og faglig dyktige ansatte og søker nå <strong>fagsykepleier</strong> til avdeling Ski i 100 % fast stilling. Du må ønske å jobbe for en nær og nyskapende tjeneste, med fokus på livsmestring og velferdsteknologi.</p>\n<p>Oppgavene som fagsykepleier er integrert i hele stillingen, og to fagdager per uke markeres i turnusen.</p>\n<p><strong>Er du faglig engasjert og opptatt av å levere kvalitet i det du gjør? Da er dette jobben for deg!</strong></p>\n<h3>Arbeidsoppgaver</h3>\n<ul><li>være pådriver for kvalitet og kompetanseutvikling i avdeling Ski</li><li>arbeide hjemme hos brukere som har behov for helsehjelp</li><li>bidra til helhetlige tjenesteforløp og fokus på «hva er viktig for deg»</li><li>ha god oversikt over tjenesten, identifisere forbedringsområder og iverksette kompetansetiltak</li><li>planlegge og gjennomføre undervisning; deriblant i legemiddelhåndtering og smittevern</li><li>lære opp nyansatte, vikarer, elever, lærlinger og studenter</li><li>samarbeide tett med fagsykepleiere og fagutviklere internt i virksomheten og på tvers av flere virksomheter innenfor helse og mestring</li><li>samarbeide tett med avdelingsleder i videreutviklingen av tjenesten og være fast stedfortreder for avdelingsleder</li></ul>\n<h3>Kvalifikasjoner</h3>\n<p>Du har</p>\n<ul><li>norsk autorisasjon som sykepleier (HPR-nummer skrives i søknaden)</li><li>relevant arbeidserfaring</li><li>god evne til å kommunisere godt muntlig og skriftlig på norsk</li><li>førerkort for bil</li></ul>\n<p>Det er en fordel om du har erfaring med kvalitets -og forbedringsarbeid, og gjerne fra hjemmesykepleie. Du bør ha videreutdanning eller kurs innenfor helsefag.</p>\n<h3>Personlige egenskaper</h3>\n<p>Vi søker en faglig engasjert sykepleier, som ønsker å videreutvikle gode tjenester til hjemmeboende brukere. Du er positiv, god til å dele kunnskap og samarbeider godt med andre.</p>\n<p>Det er viktig at du jobber selvstendig, systematisk, prioriterer godt og er løsningsorientert. Vi legger vekt på at du søker kunnskap og evner å bygge kompetanse blant ansatte.</p>\n<h3>Vi tilbyr</h3>\n<ul><li>en kommune og tjenester i utvikling</li><li>varierte og spennende arbeidsoppgaver</li><li>engasjerte kollegaer og et hyggelig arbeidsmiljø</li><li>digital kultur innenfor blant annet velferdsteknologi</li><li>turnus med dag- og kveldsvakter og arbeid hver 3. helg</li><li>lønn etter lokale særavtaler</li></ul>\n<p>Nordre Follo kommune har avtale om inkluderende arbeidsliv.</p>\n<p>Ta med attester, vitnemål og minimum to referanser hvis du blir innkalt til intervju.</p>\n<p>Den som yter tjenester etter helse- og omsorgstjenesteloven skal fremlegge gyldig politiattest som nevnt i helse- og omsorgstjenesteloven § 5-4.<br />\nFor stillinger der ansatte skal ha direkte kontakt med brukere av kommunens tjenester, kreves egenerklæring om tuberkulose og MRSA, jf. smittevernloven.</p>\n<h3>Kontaktinformasjon</h3>\n<p>Berit Eriksen Løkstad, avdelingsleder, 48 05 40 74</p>\n<h3>Arbeidssted</h3>\n<p>Jernbaneveien 4<br />\n1400 Ski</p>\n<p>Søk på stillingen:<a href=\"https://candidate.webcruiter.com/cv?advertid&#61;4365837508&amp;language&#61;nb&amp;link_source_id&#61;17\" rel=\"nofollow\">Klikk her</a></p>\n<h3>Nøkkelinformasjon:</h3>\n<p>Arbeidsgiver:Nordre Follo kommune</p>\n<p>Referansenr.:4365837508<br />\nStillingsprosent: 100%<br />\nFast<br />\nStartdato: 01.06.2021<br />\nSøknadsfrist: 06.04.2021</p>\n",
      "sourceurl": null,
      "source": "XML_STILLING",
      "applicationUrl": null,
      "applicationDue": "2021-04-06T00:00",
      "occupationCategories": [
        {
          "level1": "Helse og sosial",
          "level2": "Sykepleier"
        }
      ],
      "jobtitle": null,
      "link": "https://arbeidsplassen.nav.no/stillinger/stilling/08c7888c-5b8e-4d01-aab2-00971f0ba50d",
      "employer": {
        "name": "Hjemmesykepleie Sør, Nordre Follo kommune",
        "orgnr": "988077739",
        "description": "<p>Nordre Follo kommune ble etablert 1. januar 2020 og består av de to tidligere kommunene Oppegård og Ski. Den nye kommunen har rundt 60.000 innbyggere, som forventes å stige til nærmere 80.000 i 2040. Follobanen, med utbygging av dobbeltspor Oslo-Ski, er et vesentlig element i veksten og skal stå ferdig i 2021. Den nye kommunen blir et kraftsenter i regionen, med Ski som kommunesenter.</p>\n<p>Nordre Follo kommune har ambisjon om å være landets beste oppvekstkommune og være i front innen innovasjon i helse- og omsorgstjenestene.</p>\n",
        "homepage": null
      },
      "engagementtype": "Fast",
      "extent": "Heltid",
      "starttime": "2021-06-01T00:00",
      "positioncount": "1",
      "sector": "Offentlig"
    }
  ],
  "totalElements": 5000,
  "pageNumber": 1,
  "pageSize": 100,
  "totalPages": 50,
  "first": false,
  "last": false,
  "sort": "published:desc"
}